{
  "clickable_minimum_required": "6.17.1",
  "kill": "neverball",
  "builder": "custom",
  "build": "${ROOT}/build-ubports.sh",
  "build_dir": "${ROOT}/build/${ARCH_TRIPLET}/app",
  "dependencies_host": [
    "wget"
  ],
  "dependencies_target": [
    "libqt5sensors5-dev",
    "qtbase5-dev",
    "libjpeg62",
    "libjpeg62-dev",
    "libphysfs1",
    "libphysfs-dev",
    "libvorbis-dev",
    "libsdl2-dev",
    "libsdl2-image-2.0-0",
    "libsdl2-image-dev",
    "libsdl2-ttf-2.0-0",
    "libsdl2-ttf-dev",
    "libsdl2-mixer-2.0-0",
    "libsdl2-mixer-dev",
    "libfreetype6",
    "libfreetype6-dev"
  ],
  "install_data": {
    "${ROOT}/data": "${INSTALL_DIR}",
    "${ROOT}/doc": "${INSTALL_DIR}",
    "${ROOT}/dist/*.desktop": "${INSTALL_DIR}",
    "${ROOT}/dist/manifest.json": "${INSTALL_DIR}",
    "${ROOT}/dist/neverball.apparmor": "${INSTALL_DIR}",
    "${ROOT}/dist/neverball_512.png": "${INSTALL_DIR}",
    "${ROOT}/dist/neverputt_512.png": "${INSTALL_DIR}",
    "${ROOT}/po": "${INSTALL_DIR}",
    "${ROOT}/neverball": "${INSTALL_DIR}",
    "${ROOT}/neverputt": "${INSTALL_DIR}",
    "${ROOT}/locale": "${INSTALL_DIR}"
  },
  "install_lib": [
    "/usr/lib/${ARCH_TRIPLET}/libjpeg.so.62*",
    "/usr/lib/${ARCH_TRIPLET}/libphysfs.so.1*",
    "/usr/lib/${ARCH_TRIPLET}/libphysfs.so.2*",
    "/usr/lib/${ARCH_TRIPLET}/libmad.so.0*",
    "/usr/lib/${ARCH_TRIPLET}/libsndio.so*",
    "/usr/lib/${ARCH_TRIPLET}/libmodplug.so.1*",
    "/usr/lib/${ARCH_TRIPLET}/libfluidsynth.so.1*",
    "/usr/lib/${ARCH_TRIPLET}/libvorbis.so.0*",
    "/usr/lib/${ARCH_TRIPLET}/libvorbisfile.so.3*",
    "/usr/lib/${ARCH_TRIPLET}/libvorbisenc.so.2*",
    "/usr/lib/${ARCH_TRIPLET}/libSDL2-2.0.so*",
    "/usr/lib/${ARCH_TRIPLET}/libSDL2_mixer-2.0.so*",
    "/usr/lib/${ARCH_TRIPLET}/libSDL2_ttf-2.0.so*",
    "/usr/lib/${ARCH_TRIPLET}/libSDL2_image-2.0.so*"
  ]
}
